<?xml version="1.0" encoding="UTF-8"?>
<svg width="16px" height="14px" viewBox="0 0 16 14" version="1.1" xmlns="http://www.w3.org/2000/svg" xmlns:xlink="http://www.w3.org/1999/xlink">
    <!-- Generator: Sketch 52.2 (67145) - http://www.bohemiancoding.com/sketch -->
    <title>Group 13</title>
    <desc>Created with Sketch.</desc>
    <g id="Page-1" stroke="none" stroke-width="1" fill="none" fill-rule="evenodd">
        <g id="Главная-XL-Copy" transform="translate(-391.000000, -245.000000)">
            <g id="Group-2" transform="translate(391.000000, 240.000000)">
                <g id="Group-12">
                    <g id="Group-13" transform="translate(0.000000, 5.000000)">
                        <rect id="Rectangle" fill="#FFFFFF" fill-rule="nonzero" x="1" y="1" width="14" height="12"></rect>
                        <path d="M14.5019531,1.19015908e-13 C15.500651,1.19015908e-13 16,0.333333333 16,1 C16,2 16,12 16,13 C16,13.6666667 15.6666667,14 15,14 L1,14 C0.333333333,14 -4.08562073e-14,13.6666667 -4.08562073e-14,13 C-4.08562073e-14,12 -4.08562073e-14,2 -4.08562073e-14,1 C-4.08562073e-14,0.333333333 0.5,1.19015908e-13 1.5,1.19015908e-13 L14.5019531,1.19015908e-13 Z M13.1484375,1.265625 L2.61914062,1.265625 L7.43554687,5.23828125 L7.47070312,5.25585938 C7.58789121,5.38476627 7.73437412,5.44921875 7.91015625,5.44921875 L7.92773437,5.44921875 C8.1035165,5.44921875 8.25585873,5.38476627 8.38476562,5.25585938 L8.40234375,5.22070313 L8.4375,5.203125 L13.1484375,1.265625 Z M14.5019531,12.2695313 L14.5019531,1.77539063 L9.26367187,6.15234375 C8.90038881,6.52734563 8.45508076,6.71484375 7.92773437,6.71484375 C7.40038799,6.71484375 6.95507994,6.53320494 6.59179687,6.16992188 L1.265625,1.77539063 L1.265625,12.2695313 L14.5019531,12.2695313 Z" id="mail---anticon" fill="#262626"></path>
                    </g>
                </g>
            </g>
        </g>
    </g>
</svg>