<?xml version="1.0" encoding="UTF-8"?>
<svg width="70px" height="16px" viewBox="0 0 70 16" version="1.1" xmlns="http://www.w3.org/2000/svg" xmlns:xlink="http://www.w3.org/1999/xlink">
    <!-- Generator: Sketch 52.5 (67469) - http://www.bohemiancoding.com/sketch -->
    <title>ion-ios-arrow-thin-right - Ionicons 2 Copy 4</title>
    <desc>Created with Sketch.</desc>
    <g id="Page-1" stroke="none" stroke-width="1" fill="none" fill-rule="evenodd">
        <g id="О-компании-XL" transform="translate(-805.000000, -2564.000000)" fill="#000000">
            <g id="Group-28" transform="translate(0.000000, 2315.000000)">
                <g id="Group-2" transform="translate(379.000000, 184.000000)">
                    <g id="ion-ios-arrow-thin-right---Ionicons-2-Copy-4" transform="translate(426.000000, 65.000000)">
                        <path d="M62.0099091,15.8341969 C61.6699036,15.5025891 61.6699036,15.1709862 62.0099091,14.8393783 L67.7049739,8.70466378 L0.680007733,8.70466378 C0.226666978,8.70466378 -4.41762107e-28,8.4835952 -4.41762107e-28,8.0414514 C-4.41762107e-28,7.5993076 0.226666978,7.37823901 0.680007733,7.37823901 L67.7049739,7.37823901 L62.0099091,1.24352446 C61.6699036,0.911916613 61.6699036,0.580313737 62.0099091,0.248705887 C62.3499147,-0.0829019625 62.6899152,-0.0829019625 63.0299207,0.248705887 C67.5066607,5.05701971 69.7733305,7.48877413 69.8299981,7.54404211 C69.9433333,7.65457806 70,7.8203795 70,8.0414514 C70,8.2625233 69.9433333,8.42832473 69.8299981,8.53886068 L63.0299207,15.8341969 C62.9165855,15.9447329 62.7465853,16 62.5199149,16 C62.2932446,16 62.1232443,15.9447329 62.0099091,15.8341969 Z" id="ion-ios-arrow-thin-right---Ionicons"></path>
                    </g>
                </g>
            </g>
        </g>
    </g>
</svg>