<?xml version="1.0" encoding="UTF-8"?>
<svg width="13px" height="16px" viewBox="0 0 13 16" version="1.1" xmlns="http://www.w3.org/2000/svg" xmlns:xlink="http://www.w3.org/1999/xlink">
    <!-- Generator: Sketch 52.5 (67469) - http://www.bohemiancoding.com/sketch -->
    <title>Location-pin - simple-line-icons</title>
    <desc>Created with Sketch.</desc>
    <g id="Symbols" stroke="none" stroke-width="1" fill="none" fill-rule="evenodd">
        <g id="Футер-XS" transform="translate(-118.000000, -226.000000)" fill="#262626">
            <g id="Group-12">
                <g id="Group-17" transform="translate(78.000000, 210.000000)">
                    <g id="Group-16-Copy-5">
                        <g id="Group-7" transform="translate(39.000000, 15.000000)">
                            <g id="Group-11">
                                <path d="M7.55859375,1.9375 C8.43750439,1.9375 9.22362935,2.08886567 9.91699219,2.39160156 C10.610355,2.69433745 11.1938453,3.10693098 11.6674805,3.62939453 C12.1411156,4.15185808 12.5024402,4.75976216 12.7514648,5.453125 C13.0004895,6.14648784 13.125,6.87890239 13.125,7.65039062 C13.125,8.43164453 12.9711929,9.22997639 12.6635742,10.0454102 C12.3559555,10.8608439 11.9677758,11.6616172 11.4990234,12.4477539 C11.0302711,13.2338906 10.5224637,13.9785121 9.97558594,14.6816406 C9.4287082,15.3847691 8.91601802,16.0097629 8.4375,16.5566406 C8.4375,16.5664063 8.36425854,16.6323236 8.21777344,16.7543945 C8.07128833,16.8764655 7.9003916,16.9375 7.70507812,16.9375 L7.66113281,16.9375 C7.45605366,16.9375 7.28271555,16.8764655 7.14111328,16.7543945 C6.99951101,16.6323236 6.92871094,16.5664063 6.92871094,16.5566406 C6.4208959,15.9707002 5.87158499,15.3310582 5.28076172,14.6376953 C4.68993845,13.9443325 4.14306892,13.2143593 3.64013672,12.4477539 C3.13720452,11.6811485 2.71728684,10.8925822 2.38037109,10.0820312 C2.04345535,9.27148032 1.875,8.46094155 1.875,7.65039062 C1.875,6.87890239 2.02636567,6.14648784 2.32910156,5.453125 C2.63183745,4.75976216 3.0419896,4.15185808 3.55957031,3.62939453 C4.07715103,3.10693098 4.68017234,2.69433745 5.36865234,2.39160156 C6.05713235,2.08886567 6.78710552,1.9375 7.55859375,1.9375 Z M7.734375,15.9267578 C8.47656621,15.0771442 9.12597378,14.2666054 9.68261719,13.4951172 C10.2392606,12.723629 10.7031231,11.9936558 11.0742188,11.3051758 C11.4453144,10.6166958 11.7236319,9.96728821 11.9091797,9.35693359 C12.0947275,8.74657898 12.1875,8.17773701 12.1875,7.65039062 C12.1875,7.05468452 12.0971689,6.47119426 11.9165039,5.89990234 C11.7358389,5.32861042 11.45508,4.81836162 11.0742188,4.36914062 C10.6933575,3.91991963 10.2124052,3.55859512 9.63134766,3.28515625 C9.05029006,3.01171738 8.359379,2.875 7.55859375,2.875 C6.91405928,2.875 6.30371382,3.00195186 5.72753906,3.25585938 C5.15136431,3.50976689 4.64843965,3.85400173 4.21875,4.28857422 C3.78906035,4.7231467 3.44726689,5.23095413 3.19335938,5.81201172 C2.93945186,6.39306931 2.8125,7.00585615 2.8125,7.65039062 C2.8125,8.34375347 2.95898291,9.04687144 3.25195312,9.75976562 C3.54492334,10.4726598 3.91601338,11.1733364 4.36523438,11.8618164 C4.81445537,12.5502964 5.3076145,13.2143523 5.84472656,13.8540039 C6.38183862,14.4936555 6.88964604,15.0917941 7.36816406,15.6484375 L7.6171875,15.9267578 L7.67578125,15.9853516 C7.68554692,15.9755859 7.69775383,15.9658204 7.71240234,15.9560547 C7.72705085,15.946289 7.734375,15.9365235 7.734375,15.9267578 Z M7.51464844,4.76464844 C8.29590234,4.76464844 8.9599582,5.04052458 9.50683594,5.59228516 C10.0537137,6.14404573 10.3271484,6.80566021 10.3271484,7.57714844 C10.3271484,8.35840234 10.0537137,9.0224582 9.50683594,9.56933594 C8.9599582,10.1162137 8.29590234,10.3896484 7.51464844,10.3896484 C6.74316021,10.3896484 6.08154573,10.1162137 5.52978516,9.56933594 C4.97802458,9.0224582 4.70214844,8.35840234 4.70214844,7.57714844 C4.70214844,6.80566021 4.97802458,6.14404573 5.52978516,5.59228516 C6.08154573,5.04052458 6.74316021,4.76464844 7.51464844,4.76464844 Z M7.51464844,9.45214844 C8.03222915,9.45214844 8.47167788,9.26660342 8.83300781,8.89550781 C9.19433774,8.52441221 9.375,8.08008071 9.375,7.5625 C9.375,7.04491929 9.19189636,6.60302917 8.82568359,6.23681641 C8.45947083,5.87060364 8.01758071,5.6875 7.5,5.6875 C6.98241929,5.6875 6.54052917,5.87060364 6.17431641,6.23681641 C5.80810364,6.60302917 5.625,7.04491929 5.625,7.5625 C5.625,8.08008071 5.81054502,8.52441221 6.18164062,8.89550781 C6.55273623,9.26660342 6.99706772,9.45214844 7.51464844,9.45214844 Z" id="Location-pin---simple-line-icons"></path>
                            </g>
                        </g>
                    </g>
                </g>
            </g>
        </g>
    </g>
</svg>