<?xml version="1.0" encoding="UTF-8"?>
<svg width="24px" height="24px" viewBox="0 0 24 24" version="1.1" xmlns="http://www.w3.org/2000/svg" xmlns:xlink="http://www.w3.org/1999/xlink">
    <!-- Generator: Sketch 52.2 (67145) - http://www.bohemiancoding.com/sketch -->
    <title>phone - material</title>
    <desc>Created with Sketch.</desc>
    <g id="Page-1" stroke="none" stroke-width="1" fill="none" fill-rule="evenodd">
        <g id="Главная-XL-Copy" transform="translate(-1204.000000, -75.000000)" fill="#ffffff">
            <g id="Анимация-тел-моб" transform="translate(1204.000000, 70.000000)">
                <path d="M4.8,15.368 C5.78133824,17.2453427 7.02932576,18.9413258 8.544,20.456 C10.0586742,21.9706742 11.7546573,23.2186618 13.632,24.2 L16.576,21.256 C16.7466675,21.063999 16.9599987,20.9360003 17.216,20.872 C17.4720013,20.8079997 17.7173322,20.8293328 17.952,20.936 C19.360007,21.4266691 20.9386579,21.672 22.688,21.672 C23.0506685,21.672 23.3599987,21.7999987 23.616,22.056 C23.8720013,22.3120013 24,22.6213315 24,22.984 L24,27.688 C24,28.0506685 23.8720013,28.3599987 23.616,28.616 C23.3599987,28.8720013 23.0506685,29 22.688,29 C19.6159846,29 16.6720141,28.4026726 13.856,27.208 C11.1466531,26.0559942 8.74667712,24.4346771 6.656,22.344 C4.56532288,20.2533229 2.94400576,17.8533469 1.792,15.144 C0.59732736,12.3279859 0,9.38401536 0,6.312 C0,5.94933152 0.12799872,5.64000128 0.384,5.384 C0.64000128,5.12799872 0.94933152,5 1.312,5 L6.016,5 C6.37866848,5 6.68799872,5.12799872 6.944,5.384 C7.20000128,5.64000128 7.328,5.94933152 7.328,6.312 C7.328,8.06134208 7.57333088,9.63999296 8.064,11.048 C8.12800032,11.2826678 8.13866688,11.5279987 8.096,11.784 C8.05333312,12.0400013 7.93600096,12.2533325 7.744,12.424 L4.8,15.368 Z" id="phone---material"></path>
            </g>
        </g>
    </g>
</svg>