<?xml version="1.0" encoding="UTF-8"?>
<svg width="14px" height="3px" viewBox="0 0 14 3" version="1.1" xmlns="http://www.w3.org/2000/svg" xmlns:xlink="http://www.w3.org/1999/xlink">
    <!-- Generator: Sketch 51.2 (57519) - http://www.bohemiancoding.com/sketch -->
    <title>minus - anticon</title>
    <desc>Created with Sketch.</desc>
    <defs></defs>
    <g id="Page-1" stroke="none" stroke-width="1" fill="none" fill-rule="evenodd">
        <g id="Корзина-XL" transform="translate(-831.000000, -402.000000)" fill="#000000">
            <g id="Group-10" transform="translate(827.000000, 313.000000)">
                <g id="Group-5" transform="translate(4.000000, 81.000000)">
                    <g id="Group-4">
                        <g id="Group-12">
                            <path d="M12.546875,10.203125 L1.453125,10.203125 C1.25781152,10.203125 1.09179756,10.1347663 0.955078125,9.99804688 C0.818358691,9.86132744 0.75,9.69531348 0.75,9.5 C0.75,9.30468652 0.818358691,9.13867256 0.955078125,9.00195312 C1.09179756,8.86523369 1.25781152,8.796875 1.453125,8.796875 L12.546875,8.796875 C12.7421885,8.796875 12.9082024,8.86523369 13.0449219,9.00195312 C13.1816413,9.13867256 13.25,9.30468652 13.25,9.5 C13.25,9.69531348 13.1816413,9.86132744 13.0449219,9.99804688 C12.9082024,10.1347663 12.7421885,10.203125 12.546875,10.203125 Z" id="minus---anticon"></path>
                        </g>
                    </g>
                </g>
            </g>
        </g>
    </g>
</svg>