<?xml version="1.0" encoding="UTF-8"?>
<svg width="13px" height="25px" viewBox="0 0 13 25" version="1.1" xmlns="http://www.w3.org/2000/svg" xmlns:xlink="http://www.w3.org/1999/xlink">
    <!-- Generator: Sketch 52.2 (67145) - http://www.bohemiancoding.com/sketch -->
    <title>social-facebook - simple-line-icons</title>
    <desc>Created with Sketch.</desc>
    <g id="Page-1" stroke="none" stroke-width="1" fill="none" fill-rule="evenodd">
        <g id="Меню-XL" transform="translate(-106.000000, -971.000000)" fill="#201600">
            <g id="Group-16-Copy-2" transform="translate(60.000000, 957.000000)">
                <path d="M54.640625,16.375 C54.3281234,16.375 53.7226607,16.5351546 52.8242188,16.8554688 C51.9257768,17.1757829 51.4765625,18.1015548 51.4765625,19.6328125 L51.4765625,23.125 L48.4765625,23.125 L48.4765625,25.375 L51.4765625,25.375 L51.4765625,36.625 L53.7265625,36.625 L53.7265625,25.375 L56.984375,25.375 L57.5234375,23.125 L53.7265625,23.125 L53.7265625,19.5625 L53.8554688,19.1054688 C53.9414067,18.8007797 54.2499973,18.6484375 54.78125,18.6484375 L56.7265625,18.6484375 L56.7265625,16.3984375 L54.78125,16.3984375 L54.7460938,16.3867188 C54.7226561,16.3789062 54.6875002,16.375 54.640625,16.375 Z M54.640625,14.875 C54.6718752,14.875 54.7031248,14.8789062 54.734375,14.8867188 C54.7656252,14.8945313 54.7968748,14.8984375 54.828125,14.8984375 L56.75,14.8984375 C57.156252,14.8984375 57.5039048,15.0429673 57.7929688,15.3320312 C58.0820327,15.6210952 58.2265625,15.9765604 58.2265625,16.3984375 C58.2265625,16.4140626 58.2265625,16.4257812 58.2265625,16.4335938 C58.2265625,16.4414063 58.2265625,16.4531249 58.2265625,16.46875 L58.2265625,18.6484375 C58.2265625,19.0546895 58.0781265,19.4062485 57.78125,19.703125 C57.4843735,20.0000015 57.1328145,20.1484375 56.7265625,20.1484375 L55.2265625,20.1484375 L55.2265625,21.625 L57.5234375,21.625 C57.7578137,21.625 57.9804677,21.6757807 58.1914062,21.7773438 C58.4023448,21.8789068 58.5781243,22.031249 58.71875,22.234375 C58.8593757,22.4218759 58.9531248,22.6289051 59,22.8554688 C59.0468752,23.0820324 59.0312504,23.3124988 58.953125,23.546875 L58.4375,25.796875 C58.3437495,26.1093766 58.1640638,26.3671865 57.8984375,26.5703125 C57.6328112,26.7734385 57.3281267,26.875 56.984375,26.875 L55.2265625,26.875 L55.2265625,36.6015625 C55.2265625,37.0234396 55.0781265,37.3789048 54.78125,37.6679688 C54.4843735,37.9570327 54.1328145,38.1015625 53.7265625,38.1015625 L51.4765625,38.1015625 C51.0546854,38.1015625 50.6992202,37.9570327 50.4101562,37.6679688 C50.1210923,37.3789048 49.9765625,37.0234396 49.9765625,36.6015625 L49.9765625,26.875 L48.4765625,26.875 C48.0703105,26.875 47.7187515,26.726564 47.421875,26.4296875 C47.1249985,26.132811 46.9765625,25.781252 46.9765625,25.375 L46.9765625,23.125 C46.9765625,22.921874 47.0156246,22.7304696 47.09375,22.5507812 C47.1718754,22.3710929 47.2812493,22.2109382 47.421875,22.0703125 C47.5625007,21.9296868 47.7226554,21.8203129 47.9023438,21.7421875 C48.0820321,21.6640621 48.2734365,21.625 48.4765625,21.625 L49.9765625,21.625 L49.9765625,19.6328125 C49.9765625,18.4765567 50.2031227,17.5820344 50.65625,16.9492188 C51.1093773,16.3164031 51.5703102,15.8593764 52.0390625,15.578125 C52.539065,15.2812485 53.0312476,15.0898442 53.515625,15.0039062 C54.0000024,14.9179683 54.3749987,14.875 54.640625,14.875 Z" id="social-facebook---simple-line-icons"></path>
            </g>
        </g>
    </g>
</svg>