<?xml version="1.0" encoding="UTF-8"?>
<svg width="21px" height="21px" viewBox="0 0 21 21" version="1.1" xmlns="http://www.w3.org/2000/svg" xmlns:xlink="http://www.w3.org/1999/xlink">
    <!-- Generator: Sketch 52.2 (67145) - http://www.bohemiancoding.com/sketch -->
    <title>instagram - FontAwesome</title>
    <desc>Created with Sketch.</desc>
    <g id="Page-1" stroke="none" stroke-width="1" fill="none" fill-rule="evenodd">
        <g id="Меню-XL" transform="translate(-260.000000, -973.000000)" fill="#201600">
            <g id="Group-16-Copy-3" transform="translate(217.000000, 957.000000)">
                <path d="M56.7143021,26.4285612 C56.7143021,24.5401661 55.1741217,22.9999857 53.2857265,22.9999857 C51.3973314,22.9999857 49.857151,24.5401661 49.857151,26.4285612 C49.857151,28.3169563 51.3973314,29.8571367 53.2857265,29.8571367 C55.1741217,29.8571367 56.7143021,28.3169563 56.7143021,26.4285612 Z M58.5625186,26.4285612 C58.5625186,29.3482075 56.2053729,31.7053532 53.2857265,31.7053532 C50.3660802,31.7053532 48.0089345,29.3482075 48.0089345,26.4285612 C48.0089345,23.5089149 50.3660802,21.1517692 53.2857265,21.1517692 C56.2053729,21.1517692 58.5625186,23.5089149 58.5625186,26.4285612 Z M60.0089488,20.9374832 C60.0089488,21.6205198 59.4598411,22.1696276 58.7768045,22.1696276 C58.093768,22.1696276 57.5446602,21.6205198 57.5446602,20.9374832 C57.5446602,20.2544467 58.093768,19.7053389 58.7768045,19.7053389 C59.4598411,19.7053389 60.0089488,20.2544467 60.0089488,20.9374832 Z M53.2857265,17.9910512 C51.7857248,17.9910512 48.5714352,17.8705153 47.218755,18.4062302 C46.7500045,18.5937304 46.4017898,18.8214093 46.0401822,19.1830169 C45.6785746,19.5446244 45.4508958,19.8928391 45.2633956,20.3615897 C44.7276806,21.7142699 44.8482165,24.9285594 44.8482165,26.4285612 C44.8482165,27.928563 44.7276806,31.1428525 45.2633956,32.4955327 C45.4508958,32.9642833 45.6785746,33.312498 46.0401822,33.6741056 C46.4017898,34.0357131 46.7500045,34.263392 47.218755,34.4508922 C48.5714352,34.9866071 51.7857248,34.8660713 53.2857265,34.8660713 C54.7857283,34.8660713 58.0000179,34.9866071 59.3526981,34.4508922 C59.8214486,34.263392 60.1696633,34.0357131 60.5312709,33.6741056 C60.8928785,33.312498 61.1205573,32.9642833 61.3080575,32.4955327 C61.8437725,31.1428525 61.7232366,27.928563 61.7232366,26.4285612 C61.7232366,24.9285594 61.8437725,21.7142699 61.3080575,20.3615897 C61.1205573,19.8928391 60.8928785,19.5446244 60.5312709,19.1830169 C60.1696633,18.8214093 59.8214486,18.5937304 59.3526981,18.4062302 C58.0000179,17.8705153 54.7857283,17.9910512 53.2857265,17.9910512 Z M63.5714531,26.4285612 C63.5714531,27.8482058 63.584846,29.2544574 63.5044887,30.674102 C63.4241315,32.3214254 63.049131,33.7812485 61.8437725,34.9866071 C60.6384139,36.1919657 59.1785907,36.5669662 57.5312673,36.6473234 C56.1116228,36.7276806 54.7053711,36.7142878 53.2857265,36.7142878 C51.866082,36.7142878 50.4598303,36.7276806 49.0401858,36.6473234 C47.3928624,36.5669662 45.9330392,36.1919657 44.7276806,34.9866071 C43.5223221,33.7812485 43.1473216,32.3214254 43.0669644,30.674102 C42.9866071,29.2544574 43,27.8482058 43,26.4285612 C43,25.0089167 42.9866071,23.602665 43.0669644,22.1830204 C43.1473216,20.535697 43.5223221,19.0758739 44.7276806,17.8705153 C45.9330392,16.6651567 47.3928624,16.2901563 49.0401858,16.209799 C50.4598303,16.1294418 51.866082,16.1428347 53.2857265,16.1428347 C54.7053711,16.1428347 56.1116228,16.1294418 57.5312673,16.209799 C59.1785907,16.2901563 60.6384139,16.6651567 61.8437725,17.8705153 C63.049131,19.0758739 63.4241315,20.535697 63.5044887,22.1830204 C63.584846,23.602665 63.5714531,25.0089167 63.5714531,26.4285612 Z" id="instagram---FontAwesome"></path>
            </g>
        </g>
    </g>
</svg>